<?xml version="1.0" encoding="utf-8"?>
<!-- Generator: Adobe Illustrator 16.0.0, SVG Export Plug-In . SVG Version: 6.00 Build 0)  -->
<!DOCTYPE svg PUBLIC "-//W3C//DTD SVG 1.1//EN" "http://www.w3.org/Graphics/SVG/1.1/DTD/svg11.dtd">
<svg version="1.1" id="Calque_1" xmlns="http://www.w3.org/2000/svg" xmlns:xlink="http://www.w3.org/1999/xlink" x="0px" y="0px"
	 width="209px" height="290px" viewBox="0 0 209 290" enable-background="new 0 0 209 290" xml:space="preserve">
<path fill="#EE7423" d="M75.671,220.499C33.215,287.14,2.9,271.278,45.354,204.639c7.092-11.132,24.767-30.188,40.149-49.568
	c2.467,3.422,4.07,6.25,9.424,5.843c1.711,3.183,3.376,6.388,5.008,9.603C90.315,190.467,81.95,210.645,75.671,220.499
	L75.671,220.499z M110.086,116.499c4.451-11.696-0.08-13.476-1.393-25.447c-0.775-7.074,2.029-14.204,6.164-19.881
	c3.892-5.321,7.72-10.546,11.461-15.658c11.322-15.462,22.644-30.923,33.978-46.378c3.272-4.467,8.886-1.521,5.879,3.077
	c-10.401,15.94-20.813,31.879-31.221,47.817c-3.443,5.275-6.961,10.661-10.539,16.149c-2.06,3.169,3.021,5.745,5.14,2.688
	c3.75-5.397,7.436-10.705,11.04-15.896c10.888-15.684,21.773-31.37,32.673-47.048c3.153-4.537,8.764-1.58,5.883,3.077
	c-9.99,16.155-19.947,32.326-29.924,48.489c-3.306,5.354-6.683,10.828-10.117,16.401c-1.938,3.146,3.086,5.819,5.16,2.654
	c3.598-5.471,7.131-10.841,10.586-16.101c10.461-15.912,20.92-31.824,31.387-47.731c3.027-4.6,8.635-1.652,5.881,3.077
	c-9.549,16.388-19.092,32.781-28.635,49.173c-3.156,5.422-6.379,10.961-9.66,16.604c-1.859,3.191,3.139,5.906,5.148,2.672
	c3.45-5.55,6.838-11.003,10.153-16.335c10.029-16.135,20.047-32.273,30.082-48.404c2.906-4.668,8.511-1.712,5.883,3.077
	c-9.116,16.611-18.223,33.229-27.336,49.842c-3.014,5.498-6.086,11.123-9.215,16.848c-3.304,6.03-9.138,11.92-15.978,14.721
	c-14.254,5.839-17.094,0.969-29.938,17.348c-0.715,0.915-1.43,1.867-2.141,2.844L110.086,116.499L110.086,116.499z M159.062,206.852
	c42.453,66.639,16.264,80.342-26.189,13.705c-7.932-12.449-19.42-39.873-32.171-63.418c-2.688-5.899-5.631-0.977-7.549-3.037
	C80.764,136.253,37.272,87.279,19.904,50.486c-5.087-10.779-11.347-25.47-3.292-36.269c6.211-8.326,18.119-12.092,23.608-2.919
	l75.639,128.527c2.496,4.17-2.582,2.919,0.094,6.886c0.352,0.521,0.705,1.041,1.059,1.561
	C132.301,170.727,151.277,194.629,159.062,206.852L159.062,206.852z"/>
</svg>
