<?xml version="1.0" encoding="utf-8"?>
<!-- Generator: Adobe Illustrator 16.0.0, SVG Export Plug-In . SVG Version: 6.00 Build 0)  -->
<!DOCTYPE svg PUBLIC "-//W3C//DTD SVG 1.1//EN" "http://www.w3.org/Graphics/SVG/1.1/DTD/svg11.dtd">
<svg version="1.1" id="Calque_1" xmlns="http://www.w3.org/2000/svg" xmlns:xlink="http://www.w3.org/1999/xlink" x="0px" y="0px"
	 width="500px" height="500px" viewBox="0 0 500 500" enable-background="new 0 0 500 500" xml:space="preserve">
<path fill-rule="evenodd" clip-rule="evenodd" fill="#010202" d="M393.067,226.508c0,50.718-29.12,96.711-75.245,118.818
	c-11.785,5.662-102.481,5.694-114.435-0.02c-46.108-22.113-75.218-68.084-75.218-118.799v-0.944h264.898V226.508L393.067,226.508z
	 M298.615,156.522c-14.545,17.633-34.391,19.228-12.326,43.405c1.265,1.386,6.324,6.654,4.465,8.807
	c-2.203,2.548-10.917-2.851-13.09-4.396c-10.45-7.431-22.885-21.535-20.488-35.291c0.781-4.472,3.082-8.231,6.439-11.285
	c16.847-15.327,25.341-14.642,14.062-38.452c-0.764-1.609-1.577-3.182-2.366-4.778c-0.39-0.787-1.288-2.287-0.419-3.032
	c0.853-0.73,2.116,0.284,2.817,0.784c1.506,1.071,2.98,2.232,4.449,3.352C293.631,124.384,310.682,141.898,298.615,156.522
	L298.615,156.522z M260.291,144.45c-3.776,5.622-8.165,10.187-12.814,15.061c-3.236,3.397-7.012,7.36-8.606,11.831
	c-3.282,9.208,3.858,19.804,9.096,26.854c1.238,1.667,6.562,8.484,4.21,10.669c-2.597,2.417-10.851-3.854-12.971-5.709
	c-14.872-12.992-29.792-39.142-14.042-56.744c18.068-20.19,25.176-18.897,14.104-47.617c-0.771-1.995-1.604-3.957-2.397-5.94
	c-0.342-0.857-1.274-2.701-0.273-3.405c0.951-0.67,2.193,0.568,2.857,1.151c1.495,1.311,2.944,2.71,4.392,4.068
	C256.402,106.426,271.836,127.258,260.291,144.45L260.291,144.45z M162.069,242.582h-17.383
	c5.241,36.717,28.629,68.611,61.842,85.635C181.438,305.986,165.885,275.726,162.069,242.582L162.069,242.582z"/>
<g>
	<g>
		<g>
			<g>
				<path fill-rule="evenodd" clip-rule="evenodd" fill="#E3DF13" d="M159.196,371.038c-2.573,0-4.502-2.255-4.502-4.824
					c0-2.632,1.93-4.825,4.502-4.825c2.397,0,4.444,2.193,4.444,4.825C163.641,368.783,161.594,371.038,159.196,371.038z
					 M159.138,324.86c2.281,0,4.211,1.378,4.211,3.821c0,7.457-0.819,18.171-0.819,25.627c0,1.942-1.988,2.757-3.392,2.757
					c-1.87,0-3.45-0.814-3.45-2.757c0-7.456-0.818-18.17-0.818-25.627C154.87,326.238,156.741,324.86,159.138,324.86z
					 M203.564,373.888l-39.707-70.562c-1.003-1.783-2.806-2.874-4.75-2.874c-1.943,0-3.745,1.09-4.749,2.874l-39.707,70.562
					c-1.033,1.836-1.063,4.125-0.08,5.99c0.983,1.867,2.829,3.968,4.829,3.968h79.415c2,0,3.845-2.101,4.829-3.968
					C204.628,378.013,204.597,375.724,203.564,373.888"/>
			</g>
		</g>
	</g>
</g>
</svg>
